{
    "count": 1010,
    "next": "https://pokeapi.co/api/v2/pokemon-species?offset=20&limit=20",
    "previous": null,
    "results": [
        {
            "name": "bulbasaur",
            "url": "https://pokeapi.co/api/v2/pokemon-species/1/"
        },
        {
            "name": "ivysaur",
            "url": "https://pokeapi.co/api/v2/pokemon-species/2/"
        },
        {
            "name": "venusaur",
            "url": "https://pokeapi.co/api/v2/pokemon-species/3/"
        }
    ]
}
